%YAML 1.1
%TAG !u! tag:unity3d.com,2011:
--- !u!1045 &1
EditorBuildSettings:
  m_ObjectHideFlags: 0
  serializedVersion: 2
  m_Scenes:
  - enabled: 1
    path: Assets/Scenes/Menus/Splash.unity
  - enabled: 1
    path: Assets/Scenes/Menus/Main Menu.unity
  - enabled: 1
    path: Assets/Scenes/Level 2.unity
  - enabled: 0
    path: Assets/Scenes/Level 1.unity
  - enabled: 1
    path: Assets/Scenes/Menus/Credits.unity
